Module 2.2 – DATS 1001–Fall Schedule
…
Filtering Rows with filter()

The filter() function allows us to extract rows from a data frame that meet specific conditions. This is useful when we want to zoom in on a particular subset of the data. For example, we might be interested in analyzing only the flights that departed on a certain day, or perhaps only the flights from a specific carrier or airport.

Suppose we want to examine only the flights that departed on January 1st. We can use:

flights |>
  filter(month == 1, day == 1)

# A tibble: 842 × 19
    year month   day dep_time sched_dep_time dep_delay arr_time sched_arr_time
   <int> <int> <int>    <int>          <int>     <dbl>    <int>          <int>
 1  2013     1     1      517            515         2      830            819
 2  2013     1     1      533            529         4      850            830
 3  2013     1     1      542            540         2      923            850
 4  2013     1     1      544            545        -1     1004           1022
 5  2013     1     1      554            600        -6      812            837
 6  2013     1     1      554            558        -4      740            728
 7  2013     1     1      555            600        -5      913            854
 8  2013     1     1      557            600        -3      709            723
 9  2013     1     1      557            600        -3      838            846
10  2013     1     1      558            600        -2      753            745
# ℹ 832 more rows
# ℹ 11 more variables: arr_delay <dbl>, carrier <chr>, flight <int>,
#   tailnum <chr>, origin <chr>, dest <chr>, air_time <dbl>, distance <dbl>,
#   hour <dbl>, minute <dbl>, time_hour <dttm>
…
Find flights that arrived before May 1 and were delayed by more than 60 minutes.

Filter for flights that were operated by American Airlines (carrier code “AA”) or Delta Airlines (carrier code “DL”).

Selecting Columns with select()

The select() function is used to choose a subset of columns from a data frame. This is helpful when we are only interested in a few variables and want to avoid cluttering our analysis with unnecessary information.

For example, if we want to examine only the year, month, day, departure time, and flight number, we might write:

flights |>
  select(year, month, day, dep_time, arr_time, carrier, flight)

# A tibble: 336,776 × 7
    year month   day dep_time arr_time carrier flight
   <int> <int> <int>    <int>    <int> <chr>    <int>
 1  2013     1     1      517      830 UA        1545
 2  2013     1     1      533      850 UA        1714
 3  2013     1     1      542      923 AA        1141
 4  2013     1     1      544     1004 B6         725
 5  2013     1     1      554      812 DL         461
 6  2013     1     1      554      740 UA        1696
 7  2013     1     1      555      913 B6         507
 8  2013     1     1      557      709 EV        5708
 9  2013     1     1      557      838 B6          79
10  2013     1     1      558      753 AA         301
# ℹ 336,766 more rows

We can also rename variables while selecting them, which can be useful for clarity or consistency with other datasets:

flights |>
  select(date = time_hour, airline = carrier, flight)

# A tibble: 336,776 × 3
   date                airline flight
   <dttm>              <chr>    <int>
 1 2013-01-01 05:00:00 UA        1545
 2 2013-01-01 05:00:00 UA        1714
 3 2013-01-01 05:00:00 AA        1141
 4 2013-01-01 05:00:00 B6         725
 5 2013-01-01 06:00:00 DL         461
 6 2013-01-01 05:00:00 UA        1696
 7 2013-01-01 06:00:00 B6         507
 8 2013-01-01 06:00:00 EV        5708
 9 2013-01-01 06:00:00 B6          79
10 2013-01-01 06:00:00 AA         301
# ℹ 336,766 more rows
…
Your Turn!!

Use the select() function to keep only the year, month, day, dep_time, and arr_time columns.

Select the flight, origin, dest, and air_time columns and rename them to flight_number, departure_airport, arrival_airport, and flight_duration.

Creating New Variables with mutate()

The mutate() function allows us to add new columns to a data frame or transform existing ones. This is useful for deriving new insights from raw data. For example, we might want to calculate how much time was gained or lost during a flight:

flights |>
  mutate(time_gain = arr_delay - dep_delay) |>
  select(flight, dep_delay, arr_delay, time_gain)

# A tibble: 336,776 × 4
   flight dep_delay arr_delay time_gain
    <int>     <dbl>     <dbl>     <dbl>
 1   1545         2        11         9
 2   1714         4        20        16
 3   1141         2        33        31
 4    725        -1       -18       -17
 5    461        -6       -25       -19
 6   1696        -4        12        16
 7    507        -5        19        24
 8   5708        -3       -14       -11
 9     79        -3        -8        -5
10    301        -2         8        10
# ℹ 336,766 more rows
…
Add a new variable called flight_speed that calculates the average speed of the flight in miles per hour, assuming the distance is given in miles and after converting air time into hours.

Combining filter(), select(), and mutate()

These three functions are most powerful when used together. A typical workflow might involve narrowing down the dataset to a subset of interest, selecting relevant variables, and then creating new variables to aid analysis.

Here’s an example:

flights |>
  filter(month == 6, day == 15) |>
  select(flight, origin, dest, dep_delay, arr_delay) |>
  mutate(total_delay = dep_delay + arr_delay)

# A tibble: 801 × 6
   flight origin dest  dep_delay arr_delay total_delay
    <int> <chr>  <chr>     <dbl>     <dbl>       <dbl>
 1   1431 EWR    CLT          -4       -22         -26
 2    327 EWR    IAH           0        -3          -3
 3    725 JFK    BQN          -4        34          30
 4   1714 LGA    IAH          -3       -25         -28
 5   1141 EWR    SFO          -2        -5          -7
 6   5559 EWR    DTW          -9        -9         -18
 7    635 LGA    ORD          -7       -23         -30
 8    517 EWR    MCO          -6       -28         -34
 9    731 LGA    DTW          -6       -16         -22
10   1535 LGA    PHL          -6        -7         -13
# ℹ 791 more rows
…
